…
``` r
df_pop_narrow <-
  df_pop %>%
  select(-c("Estimate!!Total-Annotate","Margin of Error!!Total_Annotate")) %>% 
  mutate(
    "Margin of Error!!Total" = replace_na(0)
    )

head(df_pop_narrow, 50)
```

    ## # A tibble: 50 × 4
    ##    id            `Geographic Area Name` `Estimate!!Total` Margin of Error!!Tot…¹
    ##    <chr>         <chr>                              <dbl>                  <dbl>
    ##  1 0500000US010… Autauga County, Alaba…             55200                      0
    ##  2 0500000US010… Baldwin County, Alaba…            208107                      0
    ##  3 0500000US010… Barbour County, Alaba…             25782                      0
    ##  4 0500000US010… Bibb County, Alabama               22527                      0
    ##  5 0500000US010… Blount County, Alabama             57645                      0
    ##  6 0500000US010… Bullock County, Alaba…             10352                      0
    ##  7 0500000US010… Butler County, Alabama             20025                      0
    ##  8 0500000US010… Calhoun County, Alaba…            115098                      0
    ##  9 0500000US010… Chambers County, Alab…             33826                      0
    ## 10 0500000US010… Cherokee County, Alab…             25853                      0
    ## # ℹ 40 more rows
    ## # ℹ abbreviated name: ¹​`Margin of Error!!Total`
…
### **q3** Process the `id` column of `df_pop` to create a `fips` column.

``` r
## TASK: Create a `fips` column by extracting the county code
df_q3 <- df_pop_narrow %>% 
  mutate(
    fips = str_sub(id, start = -5)
  )

df_q3
```

    ## # A tibble: 3,220 × 5
    ##    id      `Geographic Area Name` `Estimate!!Total` Margin of Error!!Tot…¹ fips 
    ##    <chr>   <chr>                              <dbl>                  <dbl> <chr>
    ##  1 050000… Autauga County, Alaba…             55200                      0 01001
    ##  2 050000… Baldwin County, Alaba…            208107                      0 01003
    ##  3 050000… Barbour County, Alaba…             25782                      0 01005
    ##  4 050000… Bibb County, Alabama               22527                      0 01007
    ##  5 050000… Blount County, Alabama             57645                      0 01009
    ##  6 050000… Bullock County, Alaba…             10352                      0 01011
    ##  7 050000… Butler County, Alabama             20025                      0 01013
    ##  8 050000… Calhoun County, Alaba…            115098                      0 01015
    ##  9 050000… Chambers County, Alab…             33826                      0 01017
    ## 10 050000… Cherokee County, Alab…             25853                      0 01019
    ## # ℹ 3,210 more rows
    ## # ℹ abbreviated name: ¹​`Margin of Error!!Total`
…
    ## [1] "Very good!"

### **q4** Join `df_covid` with `df_q3` by the `fips` column. Use the proper type of join to preserve *only* the rows in `df_covid`.

``` r
## TASK: Join df_covid and df_q3 by fips.
df_q4 <- left_join(df_q3, df_covid, by = "fips")

df_q4
```

    ## # A tibble: 2,474,019 × 10
    ##    id      `Geographic Area Name` `Estimate!!Total` Margin of Error!!Tot…¹ fips 
    ##    <chr>   <chr>                              <dbl>                  <dbl> <chr>
    ##  1 050000… Autauga County, Alaba…             55200                      0 01001
    ##  2 050000… Autauga County, Alaba…             55200                      0 01001
    ##  3 050000… Autauga County, Alaba…             55200                      0 01001
    ##  4 050000… Autauga County, Alaba…             55200                      0 01001
    ##  5 050000… Autauga County, Alaba…             55200                      0 01001
    ##  6 050000… Autauga County, Alaba…             55200                      0 01001
    ##  7 050000… Autauga County, Alaba…             55200                      0 01001
    ##  8 050000… Autauga County, Alaba…             55200                      0 01001
    ##  9 050000… Autauga County, Alaba…             55200                      0 01001
    ## 10 050000… Autauga County, Alaba…             55200                      0 01001
    ## # ℹ 2,474,009 more rows
    ## # ℹ abbreviated name: ¹​`Margin of Error!!Total`
    ## # ℹ 5 more variables: date <date>, county <chr>, state <chr>, cases <dbl>,
    ## #   deaths <dbl>
…
enteries_per_date <-
  df_normalized %>% 
  group_by(date) %>%
  mutate(
    n = n(),
    Total = sum(n)
  )

enteries_per_date
```

    ## # A tibble: 2,474,019 × 11
    ## # Groups:   date [845]
    ##    date       county  state   fips  cases deaths population cases_per100k
    ##    <date>     <chr>   <chr>   <chr> <dbl>  <dbl>      <dbl>         <dbl>
    ##  1 2020-03-24 Autauga Alabama 01001     1      0      55200          1.81
    ##  2 2020-03-25 Autauga Alabama 01001     4      0      55200          7.25
    ##  3 2020-03-26 Autauga Alabama 01001     6      0      55200         10.9 
    ##  4 2020-03-27 Autauga Alabama 01001     6      0      55200         10.9 
    ##  5 2020-03-28 Autauga Alabama 01001     6      0      55200         10.9 
    ##  6 2020-03-29 Autauga Alabama 01001     6      0      55200         10.9 
    ##  7 2020-03-30 Autauga Alabama 01001     7      0      55200         12.7 
    ##  8 2020-03-31 Autauga Alabama 01001     7      0      55200         12.7 
    ##  9 2020-04-01 Autauga Alabama 01001    10      0      55200         18.1 
    ## 10 2020-04-02 Autauga Alabama 01001    10      0      55200         18.1 
    ## # ℹ 2,474,009 more rows
    ## # ℹ 3 more variables: deaths_per100k <dbl>, n <int>, Total <int>
…
    ## `summarise()` has grouped output by 'state', 'county'. You can override using
    ## the `.groups` argument.

``` r
mean_sd_perCounty
```

    ## # A tibble: 3,220 × 7
    ##    state   county  fips  mean_cases_per100k sd_cases_per100k mean_deaths_per100k
    ##    <chr>   <chr>   <chr>              <dbl>            <dbl>               <dbl>
    ##  1 Alabama Autauga 01001             12109.            9022.                170.
    ##  2 Alabama Baldwin 01003             10895.            8762.                143.
    ##  3 Alabama Barbour 01005              9387.            6635.                184.
    ##  4 Alabama Bibb    01007             12075.            9123.                236.
    ##  5 Alabama Blount  01009             11343.            8421.                191.
    ##  6 Alabama Bullock 01011             11034.            6382.                303.
    ##  7 Alabama Butler  01013             11314.            7546.                331.
    ##  8 Alabama Calhoun 01015             12040.            9092.                242.
    ##  9 Alabama Chambe… 01017             10920.            7839.                281.
    ## 10 Alabama Cherok… 01019              7845.            6190.                152.
    ## # ℹ 3,210 more rows
    ## # ℹ 1 more variable: sd_deaths_per100k <dbl>
…
