…
    ## Rows: 3220 Columns: 6
    ## ── Column specification ────────────────────────────────────────────────────────
    ## Delimiter: ","
    ## chr (5): id, geographic_area_name, population_moe, X5, X6
    ## dbl (1): population_estimate
    ## 
    ## ℹ Use `spec()` to retrieve the full column specification for this data.
    ## ℹ Specify the column types or set `show_col_types = FALSE` to quiet this message.

``` r
df_pop
```

    ## # A tibble: 3,220 × 6
    ##    id        geographic_area_name population_estimate population_moe X5    X6   
    ##    <chr>     <chr>                              <dbl> <chr>          <chr> <chr>
    ##  1 0500000U… Autauga County, Ala…               55200 null           ***** *****
    ##  2 0500000U… Baldwin County, Ala…              208107 null           ***** *****
    ##  3 0500000U… Barbour County, Ala…               25782 null           ***** *****
    ##  4 0500000U… Bibb County, Alabama               22527 null           ***** *****
    ##  5 0500000U… Blount County, Alab…               57645 null           ***** *****
    ##  6 0500000U… Bullock County, Ala…               10352 null           ***** *****
    ##  7 0500000U… Butler County, Alab…               20025 null           ***** *****
    ##  8 0500000U… Calhoun County, Ala…              115098 null           ***** *****
    ##  9 0500000U… Chambers County, Al…               33826 null           ***** *****
    ## 10 0500000U… Cherokee County, Al…               25853 null           ***** *****
    ## # ℹ 3,210 more rows
…
    ## Rows: 3220 Columns: 483
    ## ── Column specification ────────────────────────────────────────────────────────
    ## Delimiter: ","
    ## chr (306): Geography, Geographic Area Name, Annotation of Margin of Error!!N...
    ## dbl (176): Estimate!!Number!!HOUSEHOLD INCOME BY RACE AND HISPANIC OR LATINO...
    ## lgl   (1): ...483
    ## 
    ## ℹ Use `spec()` to retrieve the full column specification for this data.
    ## ℹ Specify the column types or set `show_col_types = FALSE` to quiet this message.

``` r
df_income
```

    ## # A tibble: 3,220 × 483
    ##    Geography      `Geographic Area Name`   Estimate!!Number!!HOUSEHOLD INCOME …¹
    ##    <chr>          <chr>                                                    <dbl>
    ##  1 0500000US01001 Autauga County, Alabama                                  21115
    ##  2 0500000US01003 Baldwin County, Alabama                                  78622
    ##  3 0500000US01005 Barbour County, Alabama                                   9186
    ##  4 0500000US01007 Bibb County, Alabama                                      6840
    ##  5 0500000US01009 Blount County, Alabama                                   20600
    ##  6 0500000US01011 Bullock County, Alabama                                   3609
    ##  7 0500000US01013 Butler County, Alabama                                    6708
    ##  8 0500000US01015 Calhoun County, Alabama                                  45033
    ##  9 0500000US01017 Chambers County, Alabama                                 13516
    ## 10 0500000US01019 Cherokee County, Alabama                                 10606
    ## # ℹ 3,210 more rows
    ## # ℹ abbreviated name:
    ## #   ¹​`Estimate!!Number!!HOUSEHOLD INCOME BY RACE AND HISPANIC OR LATINO ORIGIN OF HOUSEHOLDER!!Households`
    ## # ℹ 480 more variables:
    ## #   `Margin of Error!!Number MOE!!HOUSEHOLD INCOME BY RACE AND HISPANIC OR LATINO ORIGIN OF HOUSEHOLDER!!Households` <dbl>,
    ## #   `Annotation of Margin of Error!!Number MOE!!HOUSEHOLD INCOME BY RACE AND HISPANIC OR LATINO ORIGIN OF HOUSEHOLDER!!Households` <chr>,
    ## #   `Annotation of Estimate!!Number!!HOUSEHOLD INCOME BY RACE AND HISPANIC OR LATINO ORIGIN OF HOUSEHOLDER!!Households` <chr>, …
…
    ## Warning: There were 8 warnings in `mutate()`.
    ## The first warning was:
    ## ℹ In argument: `across(contains("median"), as.numeric)`.
    ## Caused by warning:
    ## ! NAs introduced by coercion
    ## ℹ Run ]8;;ide:run:dplyr::last_dplyr_warnings()dplyr::last_dplyr_warnings()]8;; to see the 7 remaining warnings.

``` r
  # ) %>% 
  # glimpse()
df_q3
```

    ## # A tibble: 16,100 × 5
    ##    Geography      `Geographic Area Name`  Category    Estimate `Margin of Error`
    ##    <chr>          <chr>                   <chr>          <dbl>             <dbl>
    ##  1 0500000US01001 Autauga County, Alabama 2-person f…    64947              6663
    ##  2 0500000US01001 Autauga County, Alabama 3-person f…    80172             14181
    ##  3 0500000US01001 Autauga County, Alabama 4-person f…    85455             10692
    ##  4 0500000US01001 Autauga County, Alabama 5-person f…    88601             20739
    ##  5 0500000US01001 Autauga County, Alabama 6-person f…   103787             12387
    ##  6 0500000US01003 Baldwin County, Alabama 2-person f…    63975              2297
    ##  7 0500000US01003 Baldwin County, Alabama 3-person f…    79390              8851
    ##  8 0500000US01003 Baldwin County, Alabama 4-person f…    88458              5199
    ##  9 0500000US01003 Baldwin County, Alabama 5-person f…    91259              7011
    ## 10 0500000US01003 Baldwin County, Alabama 6-person f…    69609             23175
    ## # ℹ 16,090 more rows
…
df_q4_id <-
  df_q4 %>% 
  rename(id = Geography)
# df_q4_id
# df_pop

df_data <-
  full_join(df_q4_id, df_pop, by = c("id"))
df_data
```

    ## # A tibble: 16,100 × 14
    ##    id       `Geographic Area Name` Category Estimate `Margin of Error` income_SE
    ##    <chr>    <chr>                  <chr>       <dbl>             <dbl>     <dbl>
    ##  1 0500000… Autauga County, Alaba… 2-perso…    64947              6663     4050.
    ##  2 0500000… Autauga County, Alaba… 3-perso…    80172             14181     8621.
    ##  3 0500000… Autauga County, Alaba… 4-perso…    85455             10692     6500.
    ##  4 0500000… Autauga County, Alaba… 5-perso…    88601             20739    12607.
    ##  5 0500000… Autauga County, Alaba… 6-perso…   103787             12387     7530.
    ##  6 0500000… Baldwin County, Alaba… 2-perso…    63975              2297     1396.
    ##  7 0500000… Baldwin County, Alaba… 3-perso…    79390              8851     5381.
    ##  8 0500000… Baldwin County, Alaba… 4-perso…    88458              5199     3160.
    ##  9 0500000… Baldwin County, Alaba… 5-perso…    91259              7011     4262.
    ## 10 0500000… Baldwin County, Alaba… 6-perso…    69609             23175    14088.
    ## # ℹ 16,090 more rows
    ## # ℹ 8 more variables: income_lo <dbl>, income_hi <dbl>, income_CV <dbl>,
    ## #   geographic_area_name <chr>, population_estimate <dbl>,
    ## #   population_moe <chr>, X5 <chr>, X6 <chr>
…
