…
# Obtain the Data

<!-- -------------------------------------------------- -->

### **q1** Visit the [SAT and College GPA](http://onlinestatbook.com/2/case_studies/sat.html) case study page, scroll to the bottom, and click the `Open Data with Excel` button. This will allow you to download an `xls` file. Save the file to your `data` folder, load the data as `df_sat`, and perform your “first checks” against these data. Answer the questions below:

``` r
## TODO:
df_sat <- read_xls('data/sat.xls')

## TODO: Do your "first checks"
df_sat
```

    ## # A tibble: 105 × 5
    ##    high_GPA math_SAT verb_SAT comp_GPA univ_GPA
    ##       <dbl>    <dbl>    <dbl>    <dbl>    <dbl>
    ##  1     3.45      643      589     3.76     3.52
    ##  2     2.78      558      512     2.87     2.91
    ##  3     2.52      583      503     2.54     2.4 
    ##  4     3.67      685      602     3.83     3.47
    ##  5     3.24      592      538     3.29     3.47
    ##  6     2.1       562      486     2.64     2.37
    ##  7     2.82      573      548     2.86     2.4 
    ##  8     2.36      559      536     2.03     2.24
    ##  9     2.42      552      583     2.81     3.02
    ## 10     3.51      617      591     3.41     3.32
    ## # ℹ 95 more rows
…
